<?xml version="1.0" encoding="UTF-8" standalone="no"?>
<!-- Created with Inkscape (http://www.inkscape.org/) -->

<svg
   xmlns:dc="http://purl.org/dc/elements/1.1/"
   xmlns:cc="http://creativecommons.org/ns#"
   xmlns:rdf="http://www.w3.org/1999/02/22-rdf-syntax-ns#"
   xmlns:svg="http://www.w3.org/2000/svg"
   xmlns="http://www.w3.org/2000/svg"
   xmlns:sodipodi="http://sodipodi.sourceforge.net/DTD/sodipodi-0.dtd"
   xmlns:inkscape="http://www.inkscape.org/namespaces/inkscape"
   width="210mm"
   height="297mm"
   viewBox="0 0 744.09448819 1052.3622047"
   id="svg6071"
   version="1.1"
   inkscape:version="0.91 r13725"
   sodipodi:docname="adc.svg"
   inkscape:export-filename="C:\Users\Abhi\Desktop\8051Simulator\Parts\adc.png"
   inkscape:export-xdpi="200"
   inkscape:export-ydpi="200">
  <defs
     id="defs6073" />
  <sodipodi:namedview
     id="base"
     pagecolor="#ffffff"
     bordercolor="#666666"
     borderopacity="1.0"
     inkscape:pageopacity="0.0"
     inkscape:pageshadow="2"
     inkscape:zoom="0.35"
     inkscape:cx="-150.20581"
     inkscape:cy="503.4575"
     inkscape:document-units="px"
     inkscape:current-layer="layer1"
     showgrid="false"
     inkscape:window-width="1366"
     inkscape:window-height="705"
     inkscape:window-x="-8"
     inkscape:window-y="-8"
     inkscape:window-maximized="1" />
  <metadata
     id="metadata6076">
    <rdf:RDF>
      <cc:Work
         rdf:about="">
        <dc:format>image/svg+xml</dc:format>
        <dc:type
           rdf:resource="http://purl.org/dc/dcmitype/StillImage" />
        <dc:title></dc:title>
      </cc:Work>
    </rdf:RDF>
  </metadata>
  <g
     inkscape:label="Layer 1"
     inkscape:groupmode="layer"
     id="layer1">
    <g
       id="g7732"
       inkscape:export-xdpi="200"
       inkscape:export-ydpi="200">
      <rect
         style="fill:#000000;fill-opacity:1;stroke:#ff0000;stroke-width:2.03708243;stroke-miterlimit:4;stroke-dasharray:none;stroke-opacity:0"
         id="rect3336"
         width="297.43976"
         height="587.42969"
         x="240.29469"
         y="150.39752" />
      <g
         id="g4146-9"
         transform="translate(137.586,-133.74991)">
        <rect
           y="303.65402"
           x="81.291809"
           height="44.559242"
           width="21.702099"
           id="rect4142-0"
           style="fill:#808080;fill-opacity:1;stroke:#ff0000;stroke-width:2.06047273;stroke-miterlimit:4;stroke-dasharray:none;stroke-opacity:0" />
        <rect
           y="313.41931"
           x="66.771385"
           height="23.600107"
           width="15.028677"
           id="rect4144-3"
           style="fill:#808080;fill-opacity:1;stroke:#ff0000;stroke-width:1.59103763;stroke-miterlimit:4;stroke-dasharray:none;stroke-opacity:0" />
      </g>
      <g
         id="g4146-6"
         transform="translate(137.58602,-72.321336)">
        <rect
           y="303.65402"
           x="81.291809"
           height="44.559242"
           width="21.702099"
           id="rect4142-1"
           style="fill:#808080;fill-opacity:1;stroke:#ff0000;stroke-width:2.06047273;stroke-miterlimit:4;stroke-dasharray:none;stroke-opacity:0" />
        <rect
           y="313.41931"
           x="66.771385"
           height="23.600107"
           width="15.028677"
           id="rect4144-6"
           style="fill:#808080;fill-opacity:1;stroke:#ff0000;stroke-width:1.59103763;stroke-miterlimit:4;stroke-dasharray:none;stroke-opacity:0" />
      </g>
      <g
         id="g4146-9-8"
         transform="translate(137.586,-9.4641923)">
        <rect
           y="303.65402"
           x="81.291809"
           height="44.559242"
           width="21.702099"
           id="rect4142-0-3"
           style="fill:#808080;fill-opacity:1;stroke:#ff0000;stroke-width:2.06047273;stroke-miterlimit:4;stroke-dasharray:none;stroke-opacity:0" />
        <rect
           y="313.41931"
           x="66.771385"
           height="23.600107"
           width="15.028677"
           id="rect4144-3-1"
           style="fill:#808080;fill-opacity:1;stroke:#ff0000;stroke-width:1.59103763;stroke-miterlimit:4;stroke-dasharray:none;stroke-opacity:0" />
      </g>
      <g
         id="g4146-62"
         transform="translate(137.58602,55.535808)">
        <rect
           y="303.65402"
           x="81.291809"
           height="44.559242"
           width="21.702099"
           id="rect4142-2"
           style="fill:#808080;fill-opacity:1;stroke:#ff0000;stroke-width:2.06047273;stroke-miterlimit:4;stroke-dasharray:none;stroke-opacity:0" />
        <rect
           y="313.41931"
           x="66.771385"
           height="23.600107"
           width="15.028677"
           id="rect4144-0"
           style="fill:#808080;fill-opacity:1;stroke:#ff0000;stroke-width:1.59103763;stroke-miterlimit:4;stroke-dasharray:none;stroke-opacity:0" />
      </g>
      <g
         id="g4146-9-0"
         transform="translate(137.586,118.39295)">
        <rect
           y="303.65402"
           x="81.291809"
           height="44.559242"
           width="21.702099"
           id="rect4142-0-5"
           style="fill:#808080;fill-opacity:1;stroke:#ff0000;stroke-width:2.06047273;stroke-miterlimit:4;stroke-dasharray:none;stroke-opacity:0" />
        <rect
           y="313.41931"
           x="66.771385"
           height="23.600107"
           width="15.028677"
           id="rect4144-3-0"
           style="fill:#808080;fill-opacity:1;stroke:#ff0000;stroke-width:1.59103763;stroke-miterlimit:4;stroke-dasharray:none;stroke-opacity:0" />
      </g>
      <g
         id="g4146-7"
         transform="translate(137.36631,183.74394)">
        <rect
           y="303.65402"
           x="81.291809"
           height="44.559242"
           width="21.702099"
           id="rect4142-20"
           style="fill:#808080;fill-opacity:1;stroke:#ff0000;stroke-width:2.06047273;stroke-miterlimit:4;stroke-dasharray:none;stroke-opacity:0" />
        <rect
           y="313.41931"
           x="66.771385"
           height="23.600107"
           width="15.028677"
           id="rect4144-8"
           style="fill:#808080;fill-opacity:1;stroke:#ff0000;stroke-width:1.59103763;stroke-miterlimit:4;stroke-dasharray:none;stroke-opacity:0" />
      </g>
      <g
         id="g4146-9-4"
         transform="translate(137.36629,246.60108)">
        <rect
           y="303.65402"
           x="81.291809"
           height="44.559242"
           width="21.702099"
           id="rect4142-0-1"
           style="fill:#808080;fill-opacity:1;stroke:#ff0000;stroke-width:2.06047273;stroke-miterlimit:4;stroke-dasharray:none;stroke-opacity:0" />
        <rect
           y="313.41931"
           x="66.771385"
           height="23.600107"
           width="15.028677"
           id="rect4144-3-3"
           style="fill:#808080;fill-opacity:1;stroke:#ff0000;stroke-width:1.59103763;stroke-miterlimit:4;stroke-dasharray:none;stroke-opacity:0" />
      </g>
      <g
         id="g4146-9-47"
         transform="matrix(-1,0,0,1,640.71585,-133.62953)">
        <rect
           y="303.65402"
           x="81.291809"
           height="44.559242"
           width="21.702099"
           id="rect4142-0-54"
           style="fill:#808080;fill-opacity:1;stroke:#ff0000;stroke-width:2.06047273;stroke-miterlimit:4;stroke-dasharray:none;stroke-opacity:0" />
        <rect
           y="313.41931"
           x="66.771385"
           height="23.600107"
           width="15.028677"
           id="rect4144-3-4"
           style="fill:#808080;fill-opacity:1;stroke:#ff0000;stroke-width:1.59103763;stroke-miterlimit:4;stroke-dasharray:none;stroke-opacity:0" />
      </g>
      <g
         id="g4146-62-4"
         transform="matrix(-1,0,0,1,640.71583,-70.343826)">
        <rect
           y="303.65402"
           x="81.291809"
           height="44.559242"
           width="21.702099"
           id="rect4142-2-0"
           style="fill:#808080;fill-opacity:1;stroke:#ff0000;stroke-width:2.06047273;stroke-miterlimit:4;stroke-dasharray:none;stroke-opacity:0" />
        <rect
           y="313.41931"
           x="66.771385"
           height="23.600107"
           width="15.028677"
           id="rect4144-0-5"
           style="fill:#808080;fill-opacity:1;stroke:#ff0000;stroke-width:1.59103763;stroke-miterlimit:4;stroke-dasharray:none;stroke-opacity:0" />
      </g>
      <g
         id="g4146-9-0-4"
         transform="matrix(-1,0,0,1,640.71585,-7.4866823)">
        <rect
           y="303.65402"
           x="81.291809"
           height="44.559242"
           width="21.702099"
           id="rect4142-0-5-6"
           style="fill:#808080;fill-opacity:1;stroke:#ff0000;stroke-width:2.06047273;stroke-miterlimit:4;stroke-dasharray:none;stroke-opacity:0" />
        <rect
           y="313.41931"
           x="66.771385"
           height="23.600107"
           width="15.028677"
           id="rect4144-3-0-6"
           style="fill:#808080;fill-opacity:1;stroke:#ff0000;stroke-width:1.59103763;stroke-miterlimit:4;stroke-dasharray:none;stroke-opacity:0" />
      </g>
      <g
         id="g4146-7-9"
         transform="translate(137.43656,309.29288)">
        <rect
           y="303.65402"
           x="81.291809"
           height="44.559242"
           width="21.702099"
           id="rect4142-20-1"
           style="fill:#808080;fill-opacity:1;stroke:#ff0000;stroke-width:2.06047273;stroke-miterlimit:4;stroke-dasharray:none;stroke-opacity:0" />
        <rect
           y="313.41931"
           x="66.771385"
           height="23.600107"
           width="15.028677"
           id="rect4144-8-9"
           style="fill:#808080;fill-opacity:1;stroke:#ff0000;stroke-width:1.59103763;stroke-miterlimit:4;stroke-dasharray:none;stroke-opacity:0" />
      </g>
      <g
         id="g4146-9-4-5"
         transform="translate(137.43655,371.97145)">
        <rect
           y="303.65402"
           x="81.291809"
           height="44.559242"
           width="21.702099"
           id="rect4142-0-1-5"
           style="fill:#808080;fill-opacity:1;stroke:#ff0000;stroke-width:2.06047273;stroke-miterlimit:4;stroke-dasharray:none;stroke-opacity:0" />
        <rect
           y="313.41931"
           x="66.771385"
           height="23.600107"
           width="15.028677"
           id="rect4144-3-3-8"
           style="fill:#808080;fill-opacity:1;stroke:#ff0000;stroke-width:1.59103763;stroke-miterlimit:4;stroke-dasharray:none;stroke-opacity:0" />
      </g>
      <text
         xml:space="preserve"
         style="font-style:normal;font-weight:normal;font-size:40px;line-height:125%;font-family:sans-serif;letter-spacing:0px;word-spacing:0px;fill:#000000;fill-opacity:1;stroke:none;stroke-width:1px;stroke-linecap:butt;stroke-linejoin:miter;stroke-opacity:1"
         x="333.90436"
         y="431.37302"
         id="text4317"
         sodipodi:linespacing="125%"><tspan
           sodipodi:role="line"
           id="tspan4319"
           x="333.90436"
           y="431.37302"
           style="fill:#ffffff">A</tspan><tspan
           sodipodi:role="line"
           x="333.90436"
           y="481.37302"
           id="tspan4321"
           style="fill:#ffffff">D</tspan><tspan
           sodipodi:role="line"
           x="333.90436"
           y="531.37305"
           id="tspan4323"
           style="fill:#ffffff">C</tspan></text>
      <text
         xml:space="preserve"
         style="font-style:normal;font-weight:normal;font-size:40px;line-height:125%;font-family:sans-serif;letter-spacing:0px;word-spacing:0px;fill:#ffffff;fill-opacity:1;stroke:none;stroke-width:1px;stroke-linecap:butt;stroke-linejoin:miter;stroke-opacity:1"
         x="478.83865"
         y="194.42903"
         id="text4325"
         sodipodi:linespacing="125%"><tspan
           style="font-size:22.5px"
           sodipodi:role="line"
           id="tspan4327"
           x="478.83865"
           y="194.42903">Vref</tspan></text>
      <text
         xml:space="preserve"
         style="font-style:normal;font-weight:normal;font-size:40px;line-height:125%;font-family:sans-serif;letter-spacing:0px;word-spacing:0px;fill:#ffffff;fill-opacity:1;stroke:none;stroke-width:1px;stroke-linecap:butt;stroke-linejoin:miter;stroke-opacity:1"
         x="442.56262"
         y="517.84943"
         id="text4325-4"
         sodipodi:linespacing="125%"><tspan
           style="font-size:22.5px"
           sodipodi:role="line"
           id="tspan4327-1"
           x="442.56262"
           y="517.84943">Clock R</tspan></text>
      <text
         xml:space="preserve"
         style="font-style:normal;font-weight:normal;font-size:40px;line-height:125%;font-family:sans-serif;letter-spacing:0px;word-spacing:0px;fill:#ffffff;fill-opacity:1;stroke:none;stroke-width:1px;stroke-linecap:butt;stroke-linejoin:miter;stroke-opacity:1"
         x="433.6821"
         y="582.4801"
         id="text4325-1"
         sodipodi:linespacing="125%"><tspan
           style="font-size:22.5px"
           sodipodi:role="line"
           id="tspan4327-7"
           x="433.6821"
           y="582.4801">Clock IN</tspan></text>
      <text
         xml:space="preserve"
         style="font-style:normal;font-weight:normal;font-size:40px;line-height:125%;font-family:sans-serif;letter-spacing:0px;word-spacing:0px;fill:#ffffff;fill-opacity:1;stroke:none;stroke-width:1px;stroke-linecap:butt;stroke-linejoin:miter;stroke-opacity:1"
         x="449.04388"
         y="451.40216"
         id="text4325-4-3"
         sodipodi:linespacing="125%"><tspan
           style="font-size:22.5px"
           sodipodi:role="line"
           id="tspan4327-1-1"
           x="449.04388"
           y="451.40216">~READ</tspan></text>
      <text
         xml:space="preserve"
         style="font-style:normal;font-weight:normal;font-size:40px;line-height:125%;font-family:sans-serif;letter-spacing:0px;word-spacing:0px;fill:#000000;fill-opacity:1;stroke:none;stroke-width:1px;stroke-linecap:butt;stroke-linejoin:miter;stroke-opacity:1"
         x="392.94431"
         y="387.62668"
         id="text4419"
         sodipodi:linespacing="125%"><tspan
           sodipodi:role="line"
           id="tspan4421"
           x="392.94431"
           y="387.62668"
           style="font-size:22.5px;fill:#ffffff">Analog GND</tspan></text>
      <text
         xml:space="preserve"
         style="font-style:normal;font-weight:normal;font-size:40px;line-height:125%;font-family:sans-serif;letter-spacing:0px;word-spacing:0px;fill:#000000;fill-opacity:1;stroke:none;stroke-width:1px;stroke-linecap:butt;stroke-linejoin:miter;stroke-opacity:1"
         x="247.69659"
         y="706.43341"
         id="text4347"
         sodipodi:linespacing="125%"><tspan
           sodipodi:role="line"
           id="tspan4349"
           x="247.69659"
           y="706.43341"
           style="font-size:22.5px;fill:#ffffff">D0</tspan></text>
      <text
         xml:space="preserve"
         style="font-style:normal;font-weight:normal;font-size:40px;line-height:125%;font-family:sans-serif;letter-spacing:0px;word-spacing:0px;fill:#000000;fill-opacity:1;stroke:none;stroke-width:1px;stroke-linecap:butt;stroke-linejoin:miter;stroke-opacity:1"
         x="248.95079"
         y="641.91412"
         id="text4351"
         sodipodi:linespacing="125%"><tspan
           sodipodi:role="line"
           id="tspan4353"
           x="248.95079"
           y="641.91412"
           style="font-size:22.5px;fill:#ffffff">D1</tspan></text>
      <text
         xml:space="preserve"
         style="font-style:normal;font-weight:normal;font-size:40px;line-height:125%;font-family:sans-serif;letter-spacing:0px;word-spacing:0px;fill:#000000;fill-opacity:1;stroke:none;stroke-width:1px;stroke-linecap:butt;stroke-linejoin:miter;stroke-opacity:1"
         x="246.09364"
         y="580.34271"
         id="text4355"
         sodipodi:linespacing="125%"><tspan
           sodipodi:role="line"
           id="tspan4357"
           x="246.09364"
           y="580.34271"
           style="font-size:22.5px;fill:#ffffff">D2</tspan></text>
      <text
         xml:space="preserve"
         style="font-style:normal;font-weight:normal;font-size:40px;line-height:125%;font-family:sans-serif;letter-spacing:0px;word-spacing:0px;fill:#000000;fill-opacity:1;stroke:none;stroke-width:1px;stroke-linecap:butt;stroke-linejoin:miter;stroke-opacity:1"
         x="244.2477"
         y="519.47583"
         id="text4359"
         sodipodi:linespacing="125%"><tspan
           sodipodi:role="line"
           id="tspan4361"
           x="244.2477"
           y="519.47583"
           style="font-size:22.5px;fill:#ffffff">D3</tspan></text>
      <text
         xml:space="preserve"
         style="font-style:normal;font-weight:normal;font-size:40px;line-height:125%;font-family:sans-serif;letter-spacing:0px;word-spacing:0px;fill:#000000;fill-opacity:1;stroke:none;stroke-width:1px;stroke-linecap:butt;stroke-linejoin:miter;stroke-opacity:1"
         x="244.487"
         y="451.20059"
         id="text4363"
         sodipodi:linespacing="125%"><tspan
           sodipodi:role="line"
           id="tspan4365"
           x="244.487"
           y="451.20059"
           style="font-size:22.5px;fill:#ffffff">D4</tspan></text>
      <text
         xml:space="preserve"
         style="font-style:normal;font-weight:normal;font-size:40px;line-height:125%;font-family:sans-serif;letter-spacing:0px;word-spacing:0px;fill:#000000;fill-opacity:1;stroke:none;stroke-width:1px;stroke-linecap:butt;stroke-linejoin:miter;stroke-opacity:1"
         x="244.71992"
         y="388.22467"
         id="text4367"
         sodipodi:linespacing="125%"><tspan
           sodipodi:role="line"
           id="tspan4369"
           x="244.71992"
           y="388.22467"
           style="font-size:22.5px;fill:#ffffff">D5</tspan></text>
      <text
         xml:space="preserve"
         style="font-style:normal;font-weight:normal;font-size:40px;line-height:125%;font-family:sans-serif;letter-spacing:0px;word-spacing:0px;fill:#000000;fill-opacity:1;stroke:none;stroke-width:1px;stroke-linecap:butt;stroke-linejoin:miter;stroke-opacity:1"
         x="244.33453"
         y="326.39005"
         id="text4371"
         sodipodi:linespacing="125%"><tspan
           sodipodi:role="line"
           id="tspan4373"
           x="244.33453"
           y="326.39005"
           style="font-size:22.5px;fill:#ffffff">D6</tspan></text>
      <text
         xml:space="preserve"
         style="font-style:normal;font-weight:normal;font-size:40px;line-height:125%;font-family:sans-serif;letter-spacing:0px;word-spacing:0px;fill:#000000;fill-opacity:1;stroke:none;stroke-width:1px;stroke-linecap:butt;stroke-linejoin:miter;stroke-opacity:1"
         x="467.15659"
         y="323.87909"
         id="text4375"
         sodipodi:linespacing="125%"><tspan
           sodipodi:role="line"
           id="tspan4377"
           x="467.15659"
           y="323.87909"
           style="font-size:22.5px;fill:#ffffff">Vin(-)</tspan></text>
      <text
         xml:space="preserve"
         style="font-style:normal;font-weight:normal;font-size:40px;line-height:125%;font-family:sans-serif;letter-spacing:0px;word-spacing:0px;fill:#ffffff;fill-opacity:1;stroke:none;stroke-width:1px;stroke-linecap:butt;stroke-linejoin:miter;stroke-opacity:1"
         x="249.61308"
         y="202.1338"
         id="text4325-4-3-7"
         sodipodi:linespacing="125%"><tspan
           style="font-size:22.5px"
           sodipodi:role="line"
           id="tspan4327-1-1-7"
           x="249.61308"
           y="202.1338">VCC</tspan></text>
      <text
         xml:space="preserve"
         style="font-style:normal;font-weight:normal;font-size:40px;line-height:125%;font-family:sans-serif;letter-spacing:0px;word-spacing:0px;fill:#ffffff;fill-opacity:1;stroke:none;stroke-width:1px;stroke-linecap:butt;stroke-linejoin:miter;stroke-opacity:1"
         x="478.76584"
         y="643.95532"
         id="text4325-4-3-0"
         sodipodi:linespacing="125%"><tspan
           style="font-size:22.5px"
           sodipodi:role="line"
           id="tspan4327-1-1-9"
           x="478.76584"
           y="643.95532">~CS</tspan></text>
      <text
         xml:space="preserve"
         style="font-style:normal;font-weight:normal;font-size:40px;line-height:125%;font-family:sans-serif;letter-spacing:0px;word-spacing:0px;fill:#ffffff;fill-opacity:1;stroke:none;stroke-width:1px;stroke-linecap:butt;stroke-linejoin:miter;stroke-opacity:1"
         x="457.62177"
         y="257.60715"
         id="text4325-1-8"
         sodipodi:linespacing="125%"><tspan
           style="font-size:22.5px"
           sodipodi:role="line"
           id="tspan4327-7-6"
           x="457.62177"
           y="257.60715">Vin(+)</tspan></text>
      <g
         id="g4146-62-5"
         transform="matrix(-1,0,0,1,640.50879,56.256115)">
        <rect
           y="303.65402"
           x="81.291809"
           height="44.559242"
           width="21.702099"
           id="rect4142-2-9"
           style="fill:#808080;fill-opacity:1;stroke:#ff0000;stroke-width:2.06047273;stroke-miterlimit:4;stroke-dasharray:none;stroke-opacity:0" />
        <rect
           y="313.41931"
           x="66.771385"
           height="23.600107"
           width="15.028677"
           id="rect4144-0-7"
           style="fill:#808080;fill-opacity:1;stroke:#ff0000;stroke-width:1.59103763;stroke-miterlimit:4;stroke-dasharray:none;stroke-opacity:0" />
      </g>
      <g
         id="g4146-9-0-2"
         transform="matrix(-1,0,0,1,640.50881,119.11326)">
        <rect
           y="303.65402"
           x="81.291809"
           height="44.559242"
           width="21.702099"
           id="rect4142-0-5-2"
           style="fill:#808080;fill-opacity:1;stroke:#ff0000;stroke-width:2.06047273;stroke-miterlimit:4;stroke-dasharray:none;stroke-opacity:0" />
        <rect
           y="313.41931"
           x="66.771385"
           height="23.600107"
           width="15.028677"
           id="rect4144-3-0-2"
           style="fill:#808080;fill-opacity:1;stroke:#ff0000;stroke-width:1.59103763;stroke-miterlimit:4;stroke-dasharray:none;stroke-opacity:0" />
      </g>
      <g
         id="g4146-7-3"
         transform="matrix(-1,0,0,1,640.7285,184.46425)">
        <rect
           y="303.65402"
           x="81.291809"
           height="44.559242"
           width="21.702099"
           id="rect4142-20-5"
           style="fill:#808080;fill-opacity:1;stroke:#ff0000;stroke-width:2.06047273;stroke-miterlimit:4;stroke-dasharray:none;stroke-opacity:0" />
        <rect
           y="313.41931"
           x="66.771385"
           height="23.600107"
           width="15.028677"
           id="rect4144-8-2"
           style="fill:#808080;fill-opacity:1;stroke:#ff0000;stroke-width:1.59103763;stroke-miterlimit:4;stroke-dasharray:none;stroke-opacity:0" />
      </g>
      <g
         id="g4146-9-4-3"
         transform="matrix(-1,0,0,1,640.72852,247.32139)">
        <rect
           y="303.65402"
           x="81.291809"
           height="44.559242"
           width="21.702099"
           id="rect4142-0-1-9"
           style="fill:#808080;fill-opacity:1;stroke:#ff0000;stroke-width:2.06047273;stroke-miterlimit:4;stroke-dasharray:none;stroke-opacity:0" />
        <rect
           y="313.41931"
           x="66.771385"
           height="23.600107"
           width="15.028677"
           id="rect4144-3-3-9"
           style="fill:#808080;fill-opacity:1;stroke:#ff0000;stroke-width:1.59103763;stroke-miterlimit:4;stroke-dasharray:none;stroke-opacity:0" />
      </g>
      <g
         id="g4146-7-9-5"
         transform="matrix(-1,0,0,1,640.40571,310.01319)">
        <rect
           y="303.65402"
           x="81.291809"
           height="44.559242"
           width="21.702099"
           id="rect4142-20-1-9"
           style="fill:#808080;fill-opacity:1;stroke:#ff0000;stroke-width:2.06047273;stroke-miterlimit:4;stroke-dasharray:none;stroke-opacity:0" />
        <rect
           y="313.41931"
           x="66.771385"
           height="23.600107"
           width="15.028677"
           id="rect4144-8-9-5"
           style="fill:#808080;fill-opacity:1;stroke:#ff0000;stroke-width:1.59103763;stroke-miterlimit:4;stroke-dasharray:none;stroke-opacity:0" />
      </g>
      <g
         id="g4146-9-4-5-6"
         transform="matrix(-1,0,0,1,640.40572,372.69176)">
        <rect
           y="303.65402"
           x="81.291809"
           height="44.559242"
           width="21.702099"
           id="rect4142-0-1-5-1"
           style="fill:#808080;fill-opacity:1;stroke:#ff0000;stroke-width:2.06047273;stroke-miterlimit:4;stroke-dasharray:none;stroke-opacity:0" />
        <rect
           y="313.41931"
           x="66.771385"
           height="23.600107"
           width="15.028677"
           id="rect4144-3-3-8-6"
           style="fill:#808080;fill-opacity:1;stroke:#ff0000;stroke-width:1.59103763;stroke-miterlimit:4;stroke-dasharray:none;stroke-opacity:0" />
      </g>
      <text
         xml:space="preserve"
         style="font-style:normal;font-weight:normal;font-size:40px;line-height:125%;font-family:sans-serif;letter-spacing:0px;word-spacing:0px;fill:#000000;fill-opacity:1;stroke:none;stroke-width:1px;stroke-linecap:butt;stroke-linejoin:miter;stroke-opacity:1"
         x="400.99106"
         y="703.01227"
         id="text4419-7"
         sodipodi:linespacing="125%"><tspan
           sodipodi:role="line"
           id="tspan4421-7"
           x="400.99106"
           y="703.01227"
           style="font-size:22.5px;fill:#ffffff">Digital GND</tspan></text>
      <text
         xml:space="preserve"
         style="font-style:normal;font-weight:normal;font-size:40px;line-height:125%;font-family:sans-serif;letter-spacing:0px;word-spacing:0px;fill:#ffffff;fill-opacity:1;stroke:none;stroke-width:1px;stroke-linecap:butt;stroke-linejoin:miter;stroke-opacity:1"
         x="244.78337"
         y="261.73434"
         id="text4325-4-3-7-6"
         sodipodi:linespacing="125%"><tspan
           style="font-size:22.5px"
           sodipodi:role="line"
           id="tspan4327-1-1-7-4"
           x="244.78337"
           y="261.73434">D7</tspan></text>
    </g>
  </g>
</svg>
